{
  "authSelections": "identityPoolAndUserPool",
  "resourceName": "demoiansa",
  "serviceType": "imported",
  "region": "us-east-1",
  "requiredAttributes": [
    "email"
  ],
  "passwordPolicyMinLength": 8,
  "passwordPolicyCharacters": [],
  "mfaConfiguration": "OFF",
  "autoVerifiedAttributes": [
    "email"
  ],
  "mfaTypes": []
}